{

    "base_url" : "https://lamp.wifispark.net/",
    "log_threshold" : 1,
    "api_settings" :
    {
        "spark_api" :
        {
            "endpoint" : "https://ethan-spark-api1.wifispark.net/"
        },
        "oauth" :
        {
          "client_id" : "portal_client",
          "client_secret" : "portalsecret",
          "username" : "portal_user",
          "password" : "portalpass",
          "scope" : "portal_role"
        }
    },
    "form" : [],
    "marketing_options" : [],
    "agree_terms" : false,
    "default_hotspot_ip" : "192.168.122.21",
    "hotspot_details" : {
        "192.168.122.21" : {
            "interface_id" : "1"
        },
        "192.168.122.1" : {
            "interface_id" : ""
        }
    },
    "activation_range" : {
        "location_id" : 2,
        "location_type" : "customer"
    },
    "login_prefix" : "placeholder_url",

    "validation_access_time" : 31540000,
    "validated_access_time" : 31540000,
    "bandwidth" : {
        "up" : 1024,
        "down" : 1024
    },
    "landing_page" : "https://www.nhs.uk/captive-wifi-portal/post-auth/?ODSCODE=",
    "welcome_email" : {
        "from" : "welcome@wifispark.com",
        "subject" : "Connect to WiFi"
    },
    "friendly_wifi" : false
}
